{
  "plugins": [
      { "id": 1,
        "name": "SelmaMusic",
        "author": "Selma",
        "image": "a_001.png",
        "tags": ["Distortion", "Reveb"],
        "description": "Le plugin SelmaMusic permet de fair ceci et cela mais je ne conais rien en musique donc ...",
        "buttons":[
          {"name": "Tone", "value": "5", "min": "1", "max": "10"},
          {"name": "BOOST", "value": "5", "min": "2", "max": "12"}
        ]
      },
      { "id": 2,
          "name": "AgnieszkaMuzyka",
          "author": "Agnieszka",
          "image": "a_002.png",
          "tags": ["Generator", "Instrument"],
          "description": "Le plugin AgnieszkaMuzyka genère le son de la Basetla",
          "buttons":[
            {"name": "Level", "value": "5", "min": "1", "max": "20"},
            {"name": "Drive", "value": "8", "min": "1", "max": "15"},
            {"name": "Tone", "value": "5", "min": "1", "max": "10"}
          ]
      },
      { "id": 3,
          "name": "AgnieszkaPlug",
          "author": "Agnieszka",
          "image": "a_003.png",
          "tags": ["Instrument"],
          "description": "Le plugin AgnieszkaPlug est un plugon efficace pour simuler le violon.",
          "buttons":[
            {"name": "Level", "value": "5", "min": "1", "max": "10"},
            {"name": "Tone", "value": "5", "min": "1", "max": "10"}
          ]
      },
      { "id": 4,
          "name": "SelmaLator",
          "author": "Selma",
          "image": "a_004.png",
          "tags": ["Modulator", "Phaser"],
          "description": "Le SelmaLator permet de phaser le modulateur de note grave.",
          "buttons":[
            {"name": "Tone", "value": "5", "min": "1", "max": "10"},
            {"name": "Dry Level", "value": "5", "min": "1", "max": "10"}
          ]
      },
      { "id": 5,
          "name": "Balbizator",
          "author": "Robin",
          "image": "a_005.png",
          "tags": ["Modulator", "Chorus"],
          "description": "Le Balbizator permet de rythmer les Chorus des autres plugins",
          "buttons":[
            {"name": "Dry Level", "value": "5", "min": "1", "max": "10"},
            {"name": "Tone", "value": "5", "min": "1", "max": "10"}
          ]
      },
      { "id": 6,
          "name": "GeoffreySaurus",
          "author": "Geoffrey",
          "image": "a_006.png",
          "tags": ["Instrument"],
          "description": "Le GeoffreySorus simule le cris de l'iguanodon",
          "buttons":[
            {"name": "BOOST", "value": "5", "min": "1", "max": "10"},
            {"name": "Dry Level", "value": "5", "min": "1", "max": "10"},
            {"name": "Tone", "value": "5", "min": "1", "max": "10"}
          ]
      },
      { "id": 7,
          "name": "IssoufilGen",
          "author": "Issoufi",
          "image": "a_007.png",
          "tags": ["Chorus", "Generator"],
          "description": "Le plugin IssoufilGen permet la generation de chorus exceptionelle",
          "buttons":[
            {"name": "Tone", "value": "5", "min": "1", "max": "10"},
            {"name": "BOOST", "value": "5", "min": "1", "max": "10"}
          ]
      }
    ],
  "pedalboards": [
    {
      "id": 1,
      "name": "Ambient Toolbox",
      "author": "Agnieszka",
      "date": "23-12-1990",
      "description": "Shimmer? Check! Swell? Check! Looper? Check! Freeze pedal? Check. Everything ambient you need at your disposal. This pedalboard will push your creativity to the brink of destruction - along with your CPU meter! Seriously, turn on your Mod Duo and let it sit for a while, because when you first load it up, it struggles to keep up! I have incorporated a looper to be used with the extension pedals, but you can easily do without the looper and just use the Stuck/Freeze pedal if your CPU is maxed out. You could also remove the Pink Noise pedals at the end of the chain to reduce clipping (you can kind of hear it in the sample). Here's the sequence of events: First I started with the shimmer on, then turned on a prerecorded loop, then froze a high chord, and then started noodling. Note: since the switches are relying on presets, I wasn't sure how to change the labeling of the Swell effect, but it works really well regardless and you will get a handle on it.",
      "plugins": [1, 2, 4, 5, 6]
    }
  ],
	"users": [
		{
		  "id": 1,
		  "username": "admin",
		  "password": "admin",
		  "type": "ADMIN",
		  "url": ""
		},
		{
		  "id": 2,
		  "username": "guest",
		  "password": "guest",
		  "type": "AUTHOR",
		  "url": "http://www.hippie.lt"
		},
		{
      "id": 3,
      "username": "Selma",
      "password": "guest",
      "type": "AUTHOR",
      "url": "http://www.hippie.lt"
    },
    {
      "id": 4,
      "username": "Agnieszka",
      "password": "guest",
      "type": "AUTHOR",
      "url": "http://www.hippie.lt"
    },
    {
      "id": 5,
      "username": "Robin",
      "password": "guest",
      "type": "AUTHOR",
      "url": "http://www.hippie.lt"
    },
    {
      "id": 6,
      "username": "Geoffrey",
      "password": "guest",
      "type": "AUTHOR",
      "url": "http://www.hippie.lt"
    },
    {
      "id": 7,
      "username": "Issoufi",
      "password": "guest",
      "type": "AUTHOR",
      "url": "http://www.hippie.lt"
    }
	]
}
